Intro to Tidyverse
…
For this first introduction, we will use Allison Horst’s palmerpenguins dataset: https://allisonhorst.github.io/palmerpenguins/

The dataset contains information about 344 penguins, from 3 different species of penguins that live on 3 islands in the Palmer Archipelago, Antarctica.

Here’s a cute drawing of the three penguin species: Chinstrap, Gentoo and Adelie!

Let’s load the data and take a peek!

Code

# look at the data
penguins

# A tibble: 344 × 8
   species island    bill_length_mm bill_depth_mm flipper_length_mm body_mass_g
   <fct>   <fct>              <dbl>         <dbl>             <int>       <int>
 1 Adelie  Torgersen           39.1          18.7               181        3750
 2 Adelie  Torgersen           39.5          17.4               186        3800
 3 Adelie  Torgersen           40.3          18                 195        3250
 4 Adelie  Torgersen           NA            NA                  NA          NA
 5 Adelie  Torgersen           36.7          19.3               193        3450
 6 Adelie  Torgersen           39.3          20.6               190        3650
 7 Adelie  Torgersen           38.9          17.8               181        3625
 8 Adelie  Torgersen           39.2          19.6               195        4675
 9 Adelie  Torgersen           34.1          18.1               193        3475
10 Adelie  Torgersen           42            20.2               190        4250
# ℹ 334 more rows
# ℹ 2 more variables: sex <fct>, year <int>
…
Filter

OK, let’s learn something new.

There are lots of reasons you might want to remove rows from your dataset, including getting rid of outliers, selecting subpopulations, and so forth. For this purpose, filter() is a verb (a function in the tidyverse) that takes a data frame as its first argument, and then as its other argument(s) takes the condition(s) you want to filter on.

For example, if we want to just look at the data for those cute Chinstrap penguins, we can do

Code

penguins |>
  filter(species == "Chinstrap")

# A tibble: 68 × 8
   species   island bill_length_mm bill_depth_mm flipper_length_mm body_mass_g
   <fct>     <fct>           <dbl>         <dbl>             <int>       <int>
 1 Chinstrap Dream            46.5          17.9               192        3500
 2 Chinstrap Dream            50            19.5               196        3900
 3 Chinstrap Dream            51.3          19.2               193        3650
 4 Chinstrap Dream            45.4          18.7               188        3525
 5 Chinstrap Dream            52.7          19.8               197        3725
 6 Chinstrap Dream            45.2          17.8               198        3950
 7 Chinstrap Dream            46.1          18.2               178        3250
 8 Chinstrap Dream            51.3          18.2               197        3750
 9 Chinstrap Dream            46            18.9               195        4150
10 Chinstrap Dream            51.3          19.9               198        3700
# ℹ 58 more rows
# ℹ 2 more variables: sex <fct>, year <int>
…
Adding columns to data frames is usually done to compute some kind of derived variable. mutate() is the verb for these situations – it allows you to add a column to your dataset (or change one that already exists).

mutate() takes name-value pairs where the name gives the name of the column in the output, and the value is a expression for what value to put in that column.

Let’s add a column that computes bill depth to length

Code

#compute bill depth proportional to length
#very low means very long and thin beaks
#high means short and stout beaks
penguins |>
  mutate(bill_depth_to_length = bill_depth_mm / bill_length_mm)

# A tibble: 344 × 9
   species island    bill_length_mm bill_depth_mm flipper_length_mm body_mass_g
   <fct>   <fct>              <dbl>         <dbl>             <int>       <int>
 1 Adelie  Torgersen           39.1          18.7               181        3750
 2 Adelie  Torgersen           39.5          17.4               186        3800
 3 Adelie  Torgersen           40.3          18                 195        3250
 4 Adelie  Torgersen           NA            NA                  NA          NA
 5 Adelie  Torgersen           36.7          19.3               193        3450
 6 Adelie  Torgersen           39.3          20.6               190        3650
 7 Adelie  Torgersen           38.9          17.8               181        3625
 8 Adelie  Torgersen           39.2          19.6               195        4675
 9 Adelie  Torgersen           34.1          18.1               193        3475
10 Adelie  Torgersen           42            20.2               190        4250
# ℹ 334 more rows
# ℹ 3 more variables: sex <fct>, year <int>, bill_depth_to_length <dbl>
…
In R, we use <- to assign a value to a variable name (= is ok too for the purposes of this course).

So, to store the new column in our penguins dataset, we can just assign the new data frame to our penguins variable.

Code

#add the new column and store it in penguins
penguins <- penguins |>
  mutate(bill_depth_to_length = bill_depth_mm / bill_length_mm)

#check out our new penguins data frame
#we have a new column!
penguins

# A tibble: 344 × 9
   species island    bill_length_mm bill_depth_mm flipper_length_mm body_mass_g
   <fct>   <fct>              <dbl>         <dbl>             <int>       <int>
 1 Adelie  Torgersen           39.1          18.7               181        3750
 2 Adelie  Torgersen           39.5          17.4               186        3800
 3 Adelie  Torgersen           40.3          18                 195        3250
 4 Adelie  Torgersen           NA            NA                  NA          NA
 5 Adelie  Torgersen           36.7          19.3               193        3450
 6 Adelie  Torgersen           39.3          20.6               190        3650
 7 Adelie  Torgersen           38.9          17.8               181        3625
 8 Adelie  Torgersen           39.2          19.6               195        4675
 9 Adelie  Torgersen           34.1          18.1               193        3475
10 Adelie  Torgersen           42            20.2               190        4250
# ℹ 334 more rows
# ℹ 3 more variables: sex <fct>, year <int>, bill_depth_to_length <dbl>
…
`summarise()` has grouped output by 'condition'. You can override using the
`.groups` argument.

Code

subj_1a

# A tibble: 50 × 3
# Groups:   condition [2]
   condition subject accuracy
   <chr>     <chr>      <dbl>
 1 high      p20905     0.958
 2 high      p213384    1    
 3 high      p299672    0.833
 4 high      p359420    0.833
 5 high      p382311    0.75 
 6 high      p382455    0.917
 7 high      p445288    0.667
 8 high      p454103    0.792
 9 high      p457572    0.917
10 high      p461893    0.833
# ℹ 40 more rows
…
subj_block_1a <- nameability_data |>
  filter(experiment == "1A") |>
  group_by(condition,subject, block_num) |>
  summarize(
    accuracy=mean(is_right)
  )

`summarise()` has grouped output by 'condition', 'subject'. You can override
using the `.groups` argument.

Code

subj_block_1a

# A tibble: 150 × 4
# Groups:   condition, subject [50]
   condition subject block_num accuracy
   <chr>     <chr>       <dbl>    <dbl>
 1 high      p20905          1    0.875
 2 high      p20905          2    1    
 3 high      p20905          3    1    
 4 high      p213384         1    1    
 5 high      p213384         2    1    
 6 high      p213384         3    1    
 7 high      p299672         1    0.75 
 8 high      p299672         2    0.875
 9 high      p299672         3    0.875
10 high      p359420         1    0.625
# ℹ 140 more rows
…
